EESchema Schematic File Version 4
LIBS:Detecteur_niv_de_batt_PATIENT_LUCAS-cache
EELAYER 26 0
EELAYER END
$Descr A4 11693 8268
encoding utf-8
Sheet 1 1
Title "Carte détection du niveau de batterie"
Date "2024-05-12"
Rev "1.0"
Comp "I.U.T G.E.I.I. Brive"
Comment1 "PATIENT Lucas"
Comment2 ""
Comment3 ""
Comment4 ""
$EndDescr
$Comp
L Connector_Generic:Conn_01x03 J1
U 1 1 66411022
P 5450 2450
F 0 "J1" H 5650 2500 50  0000 L CNN
F 1 "Bornier" H 5550 2350 50  0000 L CNN
F 2 "Connector_JST:JST_NV_B03P-NV_1x03_P5.00mm_Vertical" H 5450 2450 50  0001 C CNN
F 3 "~" H 5450 2450 50  0001 C CNN
	1    5450 2450
	-1   0    0    -1  
$EndComp
$Comp
L power:GND #PWR0101
U 1 1 66411185
P 5700 2600
F 0 "#PWR0101" H 5700 2350 50  0001 C CNN
F 1 "GND" H 5700 2450 50  0000 C CNN
F 2 "" H 5700 2600 50  0001 C CNN
F 3 "" H 5700 2600 50  0001 C CNN
	1    5700 2600
	1    0    0    -1  
$EndComp
Wire Wire Line
	3600 3250 3600 3350
$Comp
L Device:R R3
U 1 1 6641136B
P 3200 4000
F 0 "R3" H 3130 3954 50  0000 R CNN
F 1 "10KΩ" H 3130 4045 50  0000 R CNN
F 2 "Resistor_THT:R_Axial_DIN0309_L9.0mm_D3.2mm_P12.70mm_Horizontal" V 3130 4000 50  0001 C CNN
F 3 "~" H 3200 4000 50  0001 C CNN
	1    3200 4000
	1    0    0    1   
$EndComp
$Comp
L Device:R R4
U 1 1 66411413
P 3200 4650
F 0 "R4" H 3130 4604 50  0000 R CNN
F 1 "28.5KΩ" H 3130 4695 50  0000 R CNN
F 2 "Resistor_THT:R_Axial_DIN0309_L9.0mm_D3.2mm_P12.70mm_Horizontal" V 3130 4650 50  0001 C CNN
F 3 "~" H 3200 4650 50  0001 C CNN
	1    3200 4650
	1    0    0    1   
$EndComp
$Comp
L Device:R R1
U 1 1 66411438
P 3600 3500
F 0 "R1" H 3670 3546 50  0000 L CNN
F 1 "20KΩ" H 3670 3455 50  0000 L CNN
F 2 "Resistor_THT:R_Axial_DIN0309_L9.0mm_D3.2mm_P12.70mm_Horizontal" V 3530 3500 50  0001 C CNN
F 3 "~" H 3600 3500 50  0001 C CNN
	1    3600 3500
	1    0    0    -1  
$EndComp
Wire Wire Line
	3600 3650 3600 3750
$Comp
L Device:R R2
U 1 1 664118DE
P 3600 4000
F 0 "R2" H 3670 4046 50  0000 L CNN
F 1 "11KΩ" H 3670 3955 50  0000 L CNN
F 2 "Resistor_THT:R_Axial_DIN0309_L9.0mm_D3.2mm_P12.70mm_Horizontal" V 3530 4000 50  0001 C CNN
F 3 "~" H 3600 4000 50  0001 C CNN
	1    3600 4000
	1    0    0    -1  
$EndComp
$Comp
L power:GND #PWR0102
U 1 1 66411D0C
P 3600 4150
F 0 "#PWR0102" H 3600 3900 50  0001 C CNN
F 1 "GND" H 3600 4000 50  0000 C CNN
F 2 "" H 3600 4150 50  0001 C CNN
F 3 "" H 3600 4150 50  0001 C CNN
	1    3600 4150
	1    0    0    -1  
$EndComp
Wire Wire Line
	3200 3250 3200 3850
Wire Wire Line
	3600 3750 4150 3750
Connection ~ 3600 3750
Wire Wire Line
	3600 3750 3600 3850
Wire Wire Line
	3200 4500 3200 4350
Connection ~ 3200 4350
Wire Wire Line
	3200 4350 3200 4150
$Comp
L power:GND #PWR0103
U 1 1 66412110
P 3200 4800
F 0 "#PWR0103" H 3200 4550 50  0001 C CNN
F 1 "GND" H 3200 4650 50  0000 C CNN
F 2 "" H 3200 4800 50  0001 C CNN
F 3 "" H 3200 4800 50  0001 C CNN
	1    3200 4800
	1    0    0    -1  
$EndComp
$Comp
L Connector:Conn_01x02_Male J2
U 1 1 664121C2
P 4250 3550
F 0 "J2" V 4100 3450 50  0000 L CNN
F 1 "Jumper_test_V+" V 4200 3250 50  0000 L CNN
F 2 "Connector_PinHeader_2.54mm:PinHeader_1x02_P2.54mm_Vertical" H 4250 3550 50  0001 C CNN
F 3 "~" H 4250 3550 50  0001 C CNN
	1    4250 3550
	0    1    1    0   
$EndComp
$Comp
L Connector:Conn_01x02_Male J3
U 1 1 664122E7
P 4250 4150
F 0 "J3" V 4100 4050 50  0000 L CNN
F 1 "Jumper_test_Vref" V 4200 3800 50  0000 L CNN
F 2 "Connector_PinHeader_2.54mm:PinHeader_1x02_P2.54mm_Vertical" H 4250 4150 50  0001 C CNN
F 3 "~" H 4250 4150 50  0001 C CNN
	1    4250 4150
	0    1    1    0   
$EndComp
Wire Wire Line
	4250 3750 4750 3750
Wire Wire Line
	4250 4350 4750 4350
$Comp
L Comparator:LM2903 U1
U 1 1 66412566
P 5250 4050
F 0 "U1" H 5300 4350 50  0000 C CNN
F 1 "LM2903" H 5350 4250 50  0000 C CNN
F 2 "Package_DIP:DIP-8_W7.62mm_LongPads" H 5250 4050 50  0001 C CNN
F 3 "http://www.ti.com/lit/ds/symlink/lm393-n.pdf" H 5250 4050 50  0001 C CNN
	1    5250 4050
	1    0    0    -1  
$EndComp
Wire Wire Line
	4750 4350 4750 4150
Wire Wire Line
	4750 3750 4750 3950
$Comp
L Comparator:LM2903 U1
U 3 1 6641296A
P 5250 4050
F 0 "U1" H 5350 3950 50  0000 L CNN
F 1 "LM2903" H 5250 3850 50  0000 L CNN
F 2 "Package_DIP:DIP-8_W7.62mm_LongPads" H 5250 4050 50  0001 C CNN
F 3 "http://www.ti.com/lit/ds/symlink/lm393-n.pdf" H 5250 4050 50  0001 C CNN
	3    5250 4050
	1    0    0    -1  
$EndComp
$Comp
L power:+5V #PWR0104
U 1 1 66412AC1
P 5150 3750
F 0 "#PWR0104" H 5150 3600 50  0001 C CNN
F 1 "+5V" H 5165 3923 50  0000 C CNN
F 2 "" H 5150 3750 50  0001 C CNN
F 3 "" H 5150 3750 50  0001 C CNN
	1    5150 3750
	1    0    0    -1  
$EndComp
$Comp
L power:GND #PWR0105
U 1 1 66412AE5
P 5150 4350
F 0 "#PWR0105" H 5150 4100 50  0001 C CNN
F 1 "GND" H 5150 4200 50  0000 C CNN
F 2 "" H 5150 4350 50  0001 C CNN
F 3 "" H 5150 4350 50  0001 C CNN
	1    5150 4350
	1    0    0    -1  
$EndComp
Wire Wire Line
	4850 3950 4850 3450
Wire Wire Line
	4850 3950 4950 3950
$Comp
L Device:R R5
U 1 1 66412EAC
P 5200 3450
F 0 "R5" V 4993 3450 50  0000 C CNN
F 1 "200KΩ" V 5084 3450 50  0000 C CNN
F 2 "Resistor_THT:R_Axial_DIN0309_L9.0mm_D3.2mm_P12.70mm_Horizontal" V 5130 3450 50  0001 C CNN
F 3 "~" H 5200 3450 50  0001 C CNN
	1    5200 3450
	0    1    1    0   
$EndComp
Wire Wire Line
	4850 3450 5050 3450
Wire Wire Line
	5350 3450 5550 3450
Wire Wire Line
	5550 3450 5550 4050
Wire Wire Line
	5550 4050 5950 4050
Connection ~ 5550 4050
$Comp
L Device:R R6
U 1 1 664134B3
P 5950 3750
F 0 "R6" H 5880 3704 50  0000 R CNN
F 1 "1.1KΩ" H 5880 3795 50  0000 R CNN
F 2 "Resistor_THT:R_Axial_DIN0309_L9.0mm_D3.2mm_P12.70mm_Horizontal" V 5880 3750 50  0001 C CNN
F 3 "~" H 5950 3750 50  0001 C CNN
	1    5950 3750
	-1   0    0    1   
$EndComp
Wire Wire Line
	5950 3900 5950 4050
Wire Wire Line
	5950 3450 5950 3600
$Comp
L power:+5V #PWR0106
U 1 1 66413ADA
P 5950 3450
F 0 "#PWR0106" H 5950 3300 50  0001 C CNN
F 1 "+5V" H 5965 3623 50  0000 C CNN
F 2 "" H 5950 3450 50  0001 C CNN
F 3 "" H 5950 3450 50  0001 C CNN
	1    5950 3450
	1    0    0    -1  
$EndComp
$Comp
L Connector:Conn_01x02_Male J4
U 1 1 66413D84
P 6550 3850
F 0 "J4" V 6500 3750 50  0000 L CNN
F 1 "Jumper_test_Vs" V 6800 3500 50  0000 L CNN
F 2 "Connector_PinHeader_2.54mm:PinHeader_1x02_P2.54mm_Vertical" H 6550 3850 50  0001 C CNN
F 3 "~" H 6550 3850 50  0001 C CNN
	1    6550 3850
	0    1    1    0   
$EndComp
$Comp
L Transistor_BJT:BC327 Q1
U 1 1 6641570F
P 7600 3450
F 0 "Q1" H 7791 3404 50  0000 L CNN
F 1 "2N2907" H 7791 3495 50  0000 L CNN
F 2 "Package_TO_SOT_THT:TO-92L_Inline_Wide" H 7800 3375 50  0001 L CIN
F 3 "http://www.onsemi.com/pub_link/Collateral/BC327-D.PDF" H 7600 3450 50  0001 L CNN
	1    7600 3450
	1    0    0    1   
$EndComp
Wire Wire Line
	6800 4600 6950 4600
$Comp
L Device:R R9
U 1 1 66417589
P 7100 4600
F 0 "R9" V 7200 4600 50  0000 C CNN
F 1 "10KΩ" V 7000 4600 50  0000 C CNN
F 2 "Resistor_THT:R_Axial_DIN0309_L9.0mm_D3.2mm_P12.70mm_Horizontal" V 7030 4600 50  0001 C CNN
F 3 "~" H 7100 4600 50  0001 C CNN
	1    7100 4600
	0    -1   -1   0   
$EndComp
Wire Wire Line
	7250 4600 7400 4600
Wire Wire Line
	7700 4400 7700 4250
$Comp
L Device:R R10
U 1 1 66417C64
P 7950 4250
F 0 "R10" V 8050 4250 50  0000 C CNN
F 1 "370Ω" V 7850 4250 50  0000 C CNN
F 2 "Resistor_THT:R_Axial_DIN0309_L9.0mm_D3.2mm_P12.70mm_Horizontal" V 7880 4250 50  0001 C CNN
F 3 "~" H 7950 4250 50  0001 C CNN
	1    7950 4250
	0    -1   -1   0   
$EndComp
Wire Wire Line
	7700 4250 7800 4250
Wire Wire Line
	8100 4250 8200 4250
$Comp
L Device:LED D2
U 1 1 66418788
P 8350 4250
F 0 "D2" H 8350 4350 50  0000 C CNN
F 1 "Verte" H 8350 4150 50  0000 C CNN
F 2 "LED_THT:LED_D3.0mm" H 8350 4250 50  0001 C CNN
F 3 "~" H 8350 4250 50  0001 C CNN
	1    8350 4250
	1    0    0    -1  
$EndComp
$Comp
L power:GND #PWR0107
U 1 1 66419B93
P 7700 4800
F 0 "#PWR0107" H 7700 4550 50  0001 C CNN
F 1 "GND" H 7700 4650 50  0000 C CNN
F 2 "" H 7700 4800 50  0001 C CNN
F 3 "" H 7700 4800 50  0001 C CNN
	1    7700 4800
	1    0    0    -1  
$EndComp
Wire Wire Line
	8500 4250 8600 4250
Wire Wire Line
	6800 3450 6950 3450
Connection ~ 6800 4050
$Comp
L Device:R R7
U 1 1 6641A32A
P 7100 3450
F 0 "R7" V 7200 3450 50  0000 C CNN
F 1 "10KΩ" V 7000 3450 50  0000 C CNN
F 2 "Resistor_THT:R_Axial_DIN0309_L9.0mm_D3.2mm_P12.70mm_Horizontal" V 7030 3450 50  0001 C CNN
F 3 "~" H 7100 3450 50  0001 C CNN
	1    7100 3450
	0    -1   -1   0   
$EndComp
Wire Wire Line
	7250 3450 7400 3450
$Comp
L power:+5V #PWR0108
U 1 1 6641A974
P 8600 4250
F 0 "#PWR0108" H 8600 4100 50  0001 C CNN
F 1 "+5V" H 8600 4400 50  0000 C CNN
F 2 "" H 8600 4250 50  0001 C CNN
F 3 "" H 8600 4250 50  0001 C CNN
	1    8600 4250
	1    0    0    -1  
$EndComp
$Comp
L Device:R R8
U 1 1 6641AF38
P 7950 3800
F 0 "R8" V 8050 3800 50  0000 C CNN
F 1 "370Ω" V 7850 3800 50  0000 C CNN
F 2 "Resistor_THT:R_Axial_DIN0309_L9.0mm_D3.2mm_P12.70mm_Horizontal" V 7880 3800 50  0001 C CNN
F 3 "~" H 7950 3800 50  0001 C CNN
	1    7950 3800
	0    -1   -1   0   
$EndComp
$Comp
L Device:LED D1
U 1 1 6641B203
P 8350 3800
F 0 "D1" H 8350 3700 50  0000 C CNN
F 1 "Rouge" H 8350 3900 50  0000 C CNN
F 2 "LED_THT:LED_D3.0mm" H 8350 3800 50  0001 C CNN
F 3 "~" H 8350 3800 50  0001 C CNN
	1    8350 3800
	-1   0    0    1   
$EndComp
Wire Wire Line
	7700 3800 7800 3800
$Comp
L power:+5V #PWR0109
U 1 1 6641C105
P 7700 3250
F 0 "#PWR0109" H 7700 3100 50  0001 C CNN
F 1 "+5V" H 7715 3423 50  0000 C CNN
F 2 "" H 7700 3250 50  0001 C CNN
F 3 "" H 7700 3250 50  0001 C CNN
	1    7700 3250
	1    0    0    -1  
$EndComp
$Comp
L power:GND #PWR0110
U 1 1 6641C14C
P 8600 3800
F 0 "#PWR0110" H 8600 3550 50  0001 C CNN
F 1 "GND" H 8600 3650 50  0000 C CNN
F 2 "" H 8600 3800 50  0001 C CNN
F 3 "" H 8600 3800 50  0001 C CNN
	1    8600 3800
	1    0    0    -1  
$EndComp
Wire Wire Line
	8500 3800 8600 3800
Wire Wire Line
	7700 3650 7700 3800
Connection ~ 5950 4050
Wire Wire Line
	4750 4150 4950 4150
Wire Wire Line
	4750 3950 4850 3950
Connection ~ 4850 3950
Wire Wire Line
	6800 3450 6800 4050
Wire Wire Line
	6800 4050 6800 4600
Wire Wire Line
	5650 2550 5700 2550
Wire Wire Line
	5700 2550 5700 2600
$Comp
L power:+5V #PWR0111
U 1 1 664688BA
P 3200 3250
F 0 "#PWR0111" H 3200 3100 50  0001 C CNN
F 1 "+5V" H 3050 3300 50  0000 C CNN
F 2 "" H 3200 3250 50  0001 C CNN
F 3 "" H 3200 3250 50  0001 C CNN
	1    3200 3250
	1    0    0    -1  
$EndComp
$Comp
L power:+5V #PWR0112
U 1 1 66468F62
P 6000 2450
F 0 "#PWR0112" H 6000 2300 50  0001 C CNN
F 1 "+5V" H 6015 2623 50  0000 C CNN
F 2 "" H 6000 2450 50  0001 C CNN
F 3 "" H 6000 2450 50  0001 C CNN
	1    6000 2450
	1    0    0    -1  
$EndComp
Wire Wire Line
	5650 2450 6000 2450
Wire Wire Line
	5650 2350 5800 2350
$Comp
L power:+BATT #PWR0113
U 1 1 66469E32
P 5800 2350
F 0 "#PWR0113" H 5800 2200 50  0001 C CNN
F 1 "+BATT" H 5815 2523 50  0000 C CNN
F 2 "" H 5800 2350 50  0001 C CNN
F 3 "" H 5800 2350 50  0001 C CNN
	1    5800 2350
	1    0    0    -1  
$EndComp
$Comp
L power:+BATT #PWR0114
U 1 1 66469E6C
P 3600 3250
F 0 "#PWR0114" H 3600 3100 50  0001 C CNN
F 1 "+BATT" H 3750 3300 50  0000 C CNN
F 2 "" H 3600 3250 50  0001 C CNN
F 3 "" H 3600 3250 50  0001 C CNN
	1    3600 3250
	1    0    0    -1  
$EndComp
$Comp
L power:PWR_FLAG #FLG0101
U 1 1 66469FC7
P 5650 2350
F 0 "#FLG0101" H 5650 2425 50  0001 C CNN
F 1 "PWR_FLAG" H 5650 2524 50  0001 C CNN
F 2 "" H 5650 2350 50  0001 C CNN
F 3 "~" H 5650 2350 50  0001 C CNN
	1    5650 2350
	1    0    0    -1  
$EndComp
Connection ~ 5650 2350
$Comp
L power:PWR_FLAG #FLG0103
U 1 1 6646A02E
P 5800 2550
F 0 "#FLG0103" H 5800 2625 50  0001 C CNN
F 1 "PWR_FLAG" H 5800 2724 50  0001 C CNN
F 2 "" H 5800 2550 50  0001 C CNN
F 3 "~" H 5800 2550 50  0001 C CNN
	1    5800 2550
	1    0    0    -1  
$EndComp
Wire Wire Line
	5700 2550 5800 2550
Connection ~ 5700 2550
Wire Wire Line
	6000 2450 6100 2450
Connection ~ 6000 2450
$Comp
L power:PWR_FLAG #FLG0104
U 1 1 6646A8F4
P 6100 2450
F 0 "#FLG0104" H 6100 2525 50  0001 C CNN
F 1 "PWR_FLAG" H 6100 2624 50  0001 C CNN
F 2 "" H 6100 2450 50  0001 C CNN
F 3 "~" H 6100 2450 50  0001 C CNN
	1    6100 2450
	1    0    0    -1  
$EndComp
$Comp
L Connector:Conn_01x01_Male J5
U 1 1 664B9FD4
P 7700 4000
F 0 "J5" V 7750 4050 50  0000 L CNN
F 1 "Conn_01x01_Male" V 7851 4040 50  0001 L CNN
F 2 "Connector_PinHeader_2.54mm:PinHeader_1x01_P2.54mm_Vertical" H 7700 4000 50  0001 C CNN
F 3 "~" H 7700 4000 50  0001 C CNN
	1    7700 4000
	0    -1   -1   0   
$EndComp
Connection ~ 7700 3800
Wire Wire Line
	8100 3800 8200 3800
$Comp
L Transistor_BJT:2N2219 Q2
U 1 1 66414C5A
P 7600 4600
F 0 "Q2" H 7791 4646 50  0000 L CNN
F 1 "2N2222" H 7791 4555 50  0000 L CNN
F 2 "Package_TO_SOT_THT:TO-92L_Inline_Wide" H 7800 4525 50  0001 L CIN
F 3 "http://www.onsemi.com/pub_link/Collateral/2N2219-D.PDF" H 7600 4600 50  0001 L CNN
	1    7600 4600
	1    0    0    -1  
$EndComp
Wire Wire Line
	3200 4350 4150 4350
Wire Notes Line
	3900 4350 3450 4350
Wire Wire Line
	6550 4050 6800 4050
Wire Wire Line
	5950 4050 6450 4050
$EndSCHEMATC
