(kicad_pcb (version 20171130) (host pcbnew "(5.0.0)")

  (general
    (thickness 1.6)
    (drawings 34)
    (tracks 89)
    (zones 0)
    (modules 14)
    (nets 7)
  )

  (page A4)
  (title_block
    (title "Alimentation Spécifique ")
    (date 2024-02-21)
    (rev 1.5)
    (company "I.U.T G.E.I.I. Brive")
    (comment 1 PATIENT)
    (comment 2 USCHE)
    (comment 3 "M. PAGE Mme COSTA")
  )

  (layers
    (0 F.Cu signal)
    (31 B.Cu signal)
    (32 B.Adhes user)
    (33 F.Adhes user)
    (34 B.Paste user)
    (35 F.Paste user)
    (36 B.SilkS user)
    (37 F.SilkS user hide)
    (38 B.Mask user)
    (39 F.Mask user)
    (40 Dwgs.User user hide)
    (41 Cmts.User user hide)
    (42 Eco1.User user)
    (43 Eco2.User user)
    (44 Edge.Cuts user)
    (45 Margin user)
    (46 B.CrtYd user hide)
    (47 F.CrtYd user hide)
    (48 B.Fab user hide)
    (49 F.Fab user)
  )

  (setup
    (last_trace_width 1.25)
    (trace_clearance 0.2)
    (zone_clearance 0.508)
    (zone_45_only no)
    (trace_min 0.2)
    (segment_width 0.2)
    (edge_width 0.15)
    (via_size 2)
    (via_drill 0.8)
    (via_min_size 0.4)
    (via_min_drill 0.3)
    (uvia_size 0.3)
    (uvia_drill 0.1)
    (uvias_allowed no)
    (uvia_min_size 0.2)
    (uvia_min_drill 0.1)
    (pcb_text_width 0.3)
    (pcb_text_size 1.5 1.5)
    (mod_edge_width 0.15)
    (mod_text_size 1 1)
    (mod_text_width 0.15)
    (pad_size 1.25 1.75)
    (pad_drill 0)
    (pad_to_mask_clearance 0.2)
    (aux_axis_origin 0 0)
    (visible_elements 7FFFFFFF)
    (pcbplotparams
      (layerselection 0x010fc_ffffffff)
      (usegerberextensions false)
      (usegerberattributes false)
      (usegerberadvancedattributes false)
      (creategerberjobfile false)
      (excludeedgelayer true)
      (linewidth 0.100000)
      (plotframeref false)
      (viasonmask false)
      (mode 1)
      (useauxorigin false)
      (hpglpennumber 1)
      (hpglpenspeed 20)
      (hpglpendiameter 15.000000)
      (psnegative false)
      (psa4output false)
      (plotreference true)
      (plotvalue true)
      (plotinvisibletext false)
      (padsonsilk false)
      (subtractmaskfromsilk false)
      (outputformat 1)
      (mirror false)
      (drillshape 1)
      (scaleselection 1)
      (outputdirectory ""))
  )

  (net 0 "")
  (net 1 +12V)
  (net 2 GND)
  (net 3 "Net-(C3-Pad1)")
  (net 4 "Net-(C4-Pad1)")
  (net 5 "Net-(D1-Pad2)")
  (net 6 "Net-(D2-Pad2)")

  (net_class Default "Ceci est la Netclass par défaut."
    (clearance 0.2)
    (trace_width 1.25)
    (via_dia 2)
    (via_drill 0.8)
    (uvia_dia 0.3)
    (uvia_drill 0.1)
    (add_net +12V)
    (add_net GND)
    (add_net "Net-(C3-Pad1)")
    (add_net "Net-(C4-Pad1)")
    (add_net "Net-(D1-Pad2)")
    (add_net "Net-(D2-Pad2)")
  )

  (module LED_SMD:LED_1206_3216Metric (layer F.Cu) (tedit 5B301BBE) (tstamp 65C77651)
    (at 140.5 90 90)
    (descr "LED SMD 1206 (3216 Metric), square (rectangular) end terminal, IPC_7351 nominal, (Body size source: http://www.tortai-tech.com/upload/download/2011102023233369053.pdf), generated with kicad-footprint-generator")
    (tags diode)
    (path /65C4ED7E)
    (attr smd)
    (fp_text reference D1 (at 0 -1.82 90) (layer F.SilkS)
      (effects (font (size 1 1) (thickness 0.15)))
    )
    (fp_text value LED_ROUGE (at 0 1.82 90) (layer F.Fab)
      (effects (font (size 1 1) (thickness 0.15)))
    )
    (fp_line (start 1.6 -0.8) (end -1.2 -0.8) (layer F.Fab) (width 0.1))
    (fp_line (start -1.2 -0.8) (end -1.6 -0.4) (layer F.Fab) (width 0.1))
    (fp_line (start -1.6 -0.4) (end -1.6 0.8) (layer F.Fab) (width 0.1))
    (fp_line (start -1.6 0.8) (end 1.6 0.8) (layer F.Fab) (width 0.1))
    (fp_line (start 1.6 0.8) (end 1.6 -0.8) (layer F.Fab) (width 0.1))
    (fp_line (start 1.6 -1.135) (end -2.285 -1.135) (layer F.SilkS) (width 0.12))
    (fp_line (start -2.285 -1.135) (end -2.285 1.135) (layer F.SilkS) (width 0.12))
    (fp_line (start -2.285 1.135) (end 1.6 1.135) (layer F.SilkS) (width 0.12))
    (fp_line (start -2.28 1.12) (end -2.28 -1.12) (layer F.CrtYd) (width 0.05))
    (fp_line (start -2.28 -1.12) (end 2.28 -1.12) (layer F.CrtYd) (width 0.05))
    (fp_line (start 2.28 -1.12) (end 2.28 1.12) (layer F.CrtYd) (width 0.05))
    (fp_line (start 2.28 1.12) (end -2.28 1.12) (layer F.CrtYd) (width 0.05))
    (fp_text user %R (at 0.254 2.0955 90) (layer F.Fab)
      (effects (font (size 0.8 0.8) (thickness 0.12)))
    )
    (pad 1 smd roundrect (at -1.4 0 90) (size 1.25 1.75) (layers F.Cu F.Paste F.Mask) (roundrect_rratio 0.2)
      (net 2 GND))
    (pad 2 smd roundrect (at 1.4 0 90) (size 1.25 1.75) (layers F.Cu F.Paste F.Mask) (roundrect_rratio 0.2)
      (net 5 "Net-(D1-Pad2)"))
    (model ${KISYS3DMOD}/LED_SMD.3dshapes/LED_1206_3216Metric.wrl
      (at (xyz 0 0 0))
      (scale (xyz 1 1 1))
      (rotate (xyz 0 0 0))
    )
  )

  (module LED_SMD:LED_1206_3216Metric (layer F.Cu) (tedit 5B301BBE) (tstamp 65C77664)
    (at 147.871 90 90)
    (descr "LED SMD 1206 (3216 Metric), square (rectangular) end terminal, IPC_7351 nominal, (Body size source: http://www.tortai-tech.com/upload/download/2011102023233369053.pdf), generated with kicad-footprint-generator")
    (tags diode)
    (path /65C4EDFA)
    (attr smd)
    (fp_text reference D2 (at 0 -1.82 90) (layer F.SilkS)
      (effects (font (size 1 1) (thickness 0.15)))
    )
    (fp_text value LED_ROUGE_2 (at 0 1.82 90) (layer F.Fab)
      (effects (font (size 1 1) (thickness 0.15)))
    )
    (fp_text user %R (at 0.0635 1.778 90) (layer F.Fab)
      (effects (font (size 0.8 0.8) (thickness 0.12)))
    )
    (fp_line (start 2.28 1.12) (end -2.28 1.12) (layer F.CrtYd) (width 0.05))
    (fp_line (start 2.28 -1.12) (end 2.28 1.12) (layer F.CrtYd) (width 0.05))
    (fp_line (start -2.28 -1.12) (end 2.28 -1.12) (layer F.CrtYd) (width 0.05))
    (fp_line (start -2.28 1.12) (end -2.28 -1.12) (layer F.CrtYd) (width 0.05))
    (fp_line (start -2.285 1.135) (end 1.6 1.135) (layer F.SilkS) (width 0.12))
    (fp_line (start -2.285 -1.135) (end -2.285 1.135) (layer F.SilkS) (width 0.12))
    (fp_line (start 1.6 -1.135) (end -2.285 -1.135) (layer F.SilkS) (width 0.12))
    (fp_line (start 1.6 0.8) (end 1.6 -0.8) (layer F.Fab) (width 0.1))
    (fp_line (start -1.6 0.8) (end 1.6 0.8) (layer F.Fab) (width 0.1))
    (fp_line (start -1.6 -0.4) (end -1.6 0.8) (layer F.Fab) (width 0.1))
    (fp_line (start -1.2 -0.8) (end -1.6 -0.4) (layer F.Fab) (width 0.1))
    (fp_line (start 1.6 -0.8) (end -1.2 -0.8) (layer F.Fab) (width 0.1))
    (pad 2 smd roundrect (at 1.4 0 90) (size 1.25 1.75) (layers F.Cu F.Paste F.Mask) (roundrect_rratio 0.2)
      (net 6 "Net-(D2-Pad2)"))
    (pad 1 smd roundrect (at -1.4 0 90) (size 1.25 1.75) (layers F.Cu F.Paste F.Mask) (roundrect_rratio 0.2)
      (net 2 GND))
    (model ${KISYS3DMOD}/LED_SMD.3dshapes/LED_1206_3216Metric.wrl
      (at (xyz 0 0 0))
      (scale (xyz 1 1 1))
      (rotate (xyz 0 0 0))
    )
  )

  (module Connector_JST:JST_NV_B02P-NV_1x02_P5.00mm_Vertical (layer F.Cu) (tedit 65D11074) (tstamp 65C7767D)
    (at 160 109.25 180)
    (descr "JST NV series connector, B02P-NV (http://www.jst-mfg.com/product/pdf/eng/eNV.pdf), generated with kicad-footprint-generator")
    (tags "connector JST NV side entry")
    (path /65C51770)
    (fp_text reference J1 (at 2.5 -4.9 180) (layer F.SilkS)
      (effects (font (size 1 1) (thickness 0.15)))
    )
    (fp_text value Bornier_12V (at 2.5 6 180) (layer F.Fab)
      (effects (font (size 1 1) (thickness 0.15)))
    )
    (fp_line (start -2.5 -3.7) (end -2.5 4.8) (layer F.Fab) (width 0.1))
    (fp_line (start -2.5 4.8) (end 7.5 4.8) (layer F.Fab) (width 0.1))
    (fp_line (start 7.5 4.8) (end 7.5 -3.7) (layer F.Fab) (width 0.1))
    (fp_line (start 7.5 -3.7) (end -2.5 -3.7) (layer F.Fab) (width 0.1))
    (fp_line (start -2.5 -2) (end 7.5 -2) (layer F.Fab) (width 0.1))
    (fp_line (start -2.5 -1) (end -1.5 0) (layer F.Fab) (width 0.1))
    (fp_line (start -2.5 1) (end -1.5 0) (layer F.Fab) (width 0.1))
    (fp_line (start -3 -4.2) (end -3 5.3) (layer F.CrtYd) (width 0.05))
    (fp_line (start -3 5.3) (end 8 5.3) (layer F.CrtYd) (width 0.05))
    (fp_line (start 8 5.3) (end 8 -4.2) (layer F.CrtYd) (width 0.05))
    (fp_line (start 8 -4.2) (end -3 -4.2) (layer F.CrtYd) (width 0.05))
    (fp_line (start -2.61 -3.81) (end -2.61 4.91) (layer F.SilkS) (width 0.12))
    (fp_line (start -2.61 4.91) (end 7.61 4.91) (layer F.SilkS) (width 0.12))
    (fp_line (start 7.61 4.91) (end 7.61 -3.81) (layer F.SilkS) (width 0.12))
    (fp_line (start 7.61 -3.81) (end -2.61 -3.81) (layer F.SilkS) (width 0.12))
    (fp_line (start -2.81 0) (end -3.41 0.3) (layer F.SilkS) (width 0.12))
    (fp_line (start -3.41 0.3) (end -3.41 -0.3) (layer F.SilkS) (width 0.12))
    (fp_line (start -3.41 -0.3) (end -2.81 0) (layer F.SilkS) (width 0.12))
    (fp_text user %R (at 2.5 4.1 180) (layer F.Fab)
      (effects (font (size 1 1) (thickness 0.15)))
    )
    (pad 1 thru_hole roundrect (at 0 1.15 180) (size 2.7 2.7) (drill 1.2) (layers *.Cu *.Mask) (roundrect_rratio 0.25)
      (net 2 GND))
    (pad 2 thru_hole roundrect (at 5 1.15 180) (size 2.7 2.7) (drill 1.2) (layers *.Cu *.Mask) (roundrect_rratio 0.25)
      (net 1 +12V))
    (model ${KISYS3DMOD}/Connector_JST.3dshapes/JST_NV_B02P-NV_1x02_P5.00mm_Vertical.wrl
      (at (xyz 0 0 0))
      (scale (xyz 1 1 1))
      (rotate (xyz 0 0 0))
    )
  )

  (module Connector_JST:JST_NV_B02P-NV_1x02_P5.00mm_Vertical (layer F.Cu) (tedit 65D10F41) (tstamp 65C776B1)
    (at 129.25 78.75)
    (descr "JST NV series connector, B02P-NV (http://www.jst-mfg.com/product/pdf/eng/eNV.pdf), generated with kicad-footprint-generator")
    (tags "connector JST NV side entry")
    (path /65C530D2)
    (fp_text reference J3 (at 2.5 -4.9) (layer F.SilkS)
      (effects (font (size 1 1) (thickness 0.15)))
    )
    (fp_text value Bornier_+9V (at 2.5 6) (layer F.Fab)
      (effects (font (size 1 1) (thickness 0.15)))
    )
    (fp_text user %R (at 2.5 4.1) (layer F.Fab)
      (effects (font (size 1 1) (thickness 0.15)))
    )
    (fp_line (start -3.41 -0.3) (end -2.81 0) (layer F.SilkS) (width 0.12))
    (fp_line (start -3.41 0.3) (end -3.41 -0.3) (layer F.SilkS) (width 0.12))
    (fp_line (start -2.81 0) (end -3.41 0.3) (layer F.SilkS) (width 0.12))
    (fp_line (start 7.61 -3.81) (end -2.61 -3.81) (layer F.SilkS) (width 0.12))
    (fp_line (start 7.61 4.91) (end 7.61 -3.81) (layer F.SilkS) (width 0.12))
    (fp_line (start -2.61 4.91) (end 7.61 4.91) (layer F.SilkS) (width 0.12))
    (fp_line (start -2.61 -3.81) (end -2.61 4.91) (layer F.SilkS) (width 0.12))
    (fp_line (start 8 -4.2) (end -3 -4.2) (layer F.CrtYd) (width 0.05))
    (fp_line (start 8 5.3) (end 8 -4.2) (layer F.CrtYd) (width 0.05))
    (fp_line (start -3 5.3) (end 8 5.3) (layer F.CrtYd) (width 0.05))
    (fp_line (start -3 -4.2) (end -3 5.3) (layer F.CrtYd) (width 0.05))
    (fp_line (start -2.5 1) (end -1.5 0) (layer F.Fab) (width 0.1))
    (fp_line (start -2.5 -1) (end -1.5 0) (layer F.Fab) (width 0.1))
    (fp_line (start -2.5 -2) (end 7.5 -2) (layer F.Fab) (width 0.1))
    (fp_line (start 7.5 -3.7) (end -2.5 -3.7) (layer F.Fab) (width 0.1))
    (fp_line (start 7.5 4.8) (end 7.5 -3.7) (layer F.Fab) (width 0.1))
    (fp_line (start -2.5 4.8) (end 7.5 4.8) (layer F.Fab) (width 0.1))
    (fp_line (start -2.5 -3.7) (end -2.5 4.8) (layer F.Fab) (width 0.1))
    (pad 2 thru_hole roundrect (at 5 1.15) (size 2.7 2.7) (drill 1.2) (layers *.Cu *.Mask) (roundrect_rratio 0.25)
      (net 2 GND))
    (pad 1 thru_hole roundrect (at 0 1.15) (size 2.7 2.7) (drill 1.2) (layers *.Cu *.Mask) (roundrect_rratio 0.25)
      (net 3 "Net-(C3-Pad1)"))
    (model ${KISYS3DMOD}/Connector_JST.3dshapes/JST_NV_B02P-NV_1x02_P5.00mm_Vertical.wrl
      (at (xyz 0 0 0))
      (scale (xyz 1 1 1))
      (rotate (xyz 0 0 0))
    )
  )

  (module Resistor_SMD:R_1206_3216Metric (layer F.Cu) (tedit 5B301BBD) (tstamp 65C776DD)
    (at 137.2925 90 270)
    (descr "Resistor SMD 1206 (3216 Metric), square (rectangular) end terminal, IPC_7351 nominal, (Body size source: http://www.tortai-tech.com/upload/download/2011102023233369053.pdf), generated with kicad-footprint-generator")
    (tags resistor)
    (path /65C779BE)
    (attr smd)
    (fp_text reference R1 (at 0 -1.82 270) (layer F.SilkS)
      (effects (font (size 1 1) (thickness 0.15)))
    )
    (fp_text value 820 (at 0.127 2.6035 270) (layer F.Fab)
      (effects (font (size 1 1) (thickness 0.15)))
    )
    (fp_text user %R (at 0 0 270) (layer F.Fab)
      (effects (font (size 0.8 0.8) (thickness 0.12)))
    )
    (fp_line (start 2.28 1.12) (end -2.28 1.12) (layer F.CrtYd) (width 0.05))
    (fp_line (start 2.28 -1.12) (end 2.28 1.12) (layer F.CrtYd) (width 0.05))
    (fp_line (start -2.28 -1.12) (end 2.28 -1.12) (layer F.CrtYd) (width 0.05))
    (fp_line (start -2.28 1.12) (end -2.28 -1.12) (layer F.CrtYd) (width 0.05))
    (fp_line (start -0.602064 0.91) (end 0.602064 0.91) (layer F.SilkS) (width 0.12))
    (fp_line (start -0.602064 -0.91) (end 0.602064 -0.91) (layer F.SilkS) (width 0.12))
    (fp_line (start 1.6 0.8) (end -1.6 0.8) (layer F.Fab) (width 0.1))
    (fp_line (start 1.6 -0.8) (end 1.6 0.8) (layer F.Fab) (width 0.1))
    (fp_line (start -1.6 -0.8) (end 1.6 -0.8) (layer F.Fab) (width 0.1))
    (fp_line (start -1.6 0.8) (end -1.6 -0.8) (layer F.Fab) (width 0.1))
    (pad 2 smd roundrect (at 1.4 0 270) (size 1.25 1.75) (layers F.Cu F.Paste F.Mask) (roundrect_rratio 0.2)
      (net 3 "Net-(C3-Pad1)"))
    (pad 1 smd roundrect (at -1.4 0 270) (size 1.25 1.75) (layers F.Cu F.Paste F.Mask) (roundrect_rratio 0.2)
      (net 5 "Net-(D1-Pad2)"))
    (model ${KISYS3DMOD}/Resistor_SMD.3dshapes/R_1206_3216Metric.wrl
      (at (xyz 0 0 0))
      (scale (xyz 1 1 1))
      (rotate (xyz 0 0 0))
    )
  )

  (module Resistor_SMD:R_1206_3216Metric (layer F.Cu) (tedit 5B301BBD) (tstamp 65C776EE)
    (at 151.2365 90 270)
    (descr "Resistor SMD 1206 (3216 Metric), square (rectangular) end terminal, IPC_7351 nominal, (Body size source: http://www.tortai-tech.com/upload/download/2011102023233369053.pdf), generated with kicad-footprint-generator")
    (tags resistor)
    (path /65C4EBF3)
    (attr smd)
    (fp_text reference R2 (at 0 -1.82 270) (layer F.SilkS)
      (effects (font (size 1 1) (thickness 0.15)))
    )
    (fp_text value 330 (at 0 1.82 270) (layer F.Fab)
      (effects (font (size 1 1) (thickness 0.15)))
    )
    (fp_line (start -1.6 0.8) (end -1.6 -0.8) (layer F.Fab) (width 0.1))
    (fp_line (start -1.6 -0.8) (end 1.6 -0.8) (layer F.Fab) (width 0.1))
    (fp_line (start 1.6 -0.8) (end 1.6 0.8) (layer F.Fab) (width 0.1))
    (fp_line (start 1.6 0.8) (end -1.6 0.8) (layer F.Fab) (width 0.1))
    (fp_line (start -0.602064 -0.91) (end 0.602064 -0.91) (layer F.SilkS) (width 0.12))
    (fp_line (start -0.602064 0.91) (end 0.602064 0.91) (layer F.SilkS) (width 0.12))
    (fp_line (start -2.28 1.12) (end -2.28 -1.12) (layer F.CrtYd) (width 0.05))
    (fp_line (start -2.28 -1.12) (end 2.28 -1.12) (layer F.CrtYd) (width 0.05))
    (fp_line (start 2.28 -1.12) (end 2.28 1.12) (layer F.CrtYd) (width 0.05))
    (fp_line (start 2.28 1.12) (end -2.28 1.12) (layer F.CrtYd) (width 0.05))
    (fp_text user %R (at 0.254 2.0955 270) (layer F.Fab)
      (effects (font (size 0.8 0.8) (thickness 0.12)))
    )
    (pad 1 smd roundrect (at -1.4 0 270) (size 1.25 1.75) (layers F.Cu F.Paste F.Mask) (roundrect_rratio 0.2)
      (net 6 "Net-(D2-Pad2)"))
    (pad 2 smd roundrect (at 1.4 0 270) (size 1.25 1.75) (layers F.Cu F.Paste F.Mask) (roundrect_rratio 0.2)
      (net 4 "Net-(C4-Pad1)"))
    (model ${KISYS3DMOD}/Resistor_SMD.3dshapes/R_1206_3216Metric.wrl
      (at (xyz 0 0 0))
      (scale (xyz 1 1 1))
      (rotate (xyz 0 0 0))
    )
  )

  (module Connector_JST:JST_NV_B03P-NV_1x03_P5.00mm_Vertical (layer F.Cu) (tedit 65D11008) (tstamp 65D3CA39)
    (at 139.25 109.25 180)
    (descr "JST NV series connector, B03P-NV (http://www.jst-mfg.com/product/pdf/eng/eNV.pdf), generated with kicad-footprint-generator")
    (tags "connector JST NV side entry")
    (path /65C782A9)
    (fp_text reference J2 (at 5 -4.9 180) (layer F.SilkS)
      (effects (font (size 1 1) (thickness 0.15)))
    )
    (fp_text value Bornier_GND (at 5 6 180) (layer F.Fab)
      (effects (font (size 1 1) (thickness 0.15)))
    )
    (fp_line (start -2.5 -3.7) (end -2.5 4.8) (layer F.Fab) (width 0.1))
    (fp_line (start -2.5 4.8) (end 12.5 4.8) (layer F.Fab) (width 0.1))
    (fp_line (start 12.5 4.8) (end 12.5 -3.7) (layer F.Fab) (width 0.1))
    (fp_line (start 12.5 -3.7) (end -2.5 -3.7) (layer F.Fab) (width 0.1))
    (fp_line (start -2.5 -2) (end 12.5 -2) (layer F.Fab) (width 0.1))
    (fp_line (start -2.5 -1) (end -1.5 0) (layer F.Fab) (width 0.1))
    (fp_line (start -2.5 1) (end -1.5 0) (layer F.Fab) (width 0.1))
    (fp_line (start -3 -4.2) (end -3 5.3) (layer F.CrtYd) (width 0.05))
    (fp_line (start -3 5.3) (end 13 5.3) (layer F.CrtYd) (width 0.05))
    (fp_line (start 13 5.3) (end 13 -4.2) (layer F.CrtYd) (width 0.05))
    (fp_line (start 13 -4.2) (end -3 -4.2) (layer F.CrtYd) (width 0.05))
    (fp_line (start -2.61 -3.81) (end -2.61 4.91) (layer F.SilkS) (width 0.12))
    (fp_line (start -2.61 4.91) (end 12.61 4.91) (layer F.SilkS) (width 0.12))
    (fp_line (start 12.61 4.91) (end 12.61 -3.81) (layer F.SilkS) (width 0.12))
    (fp_line (start 12.61 -3.81) (end -2.61 -3.81) (layer F.SilkS) (width 0.12))
    (fp_line (start -2.81 0) (end -3.41 0.3) (layer F.SilkS) (width 0.12))
    (fp_line (start -3.41 0.3) (end -3.41 -0.3) (layer F.SilkS) (width 0.12))
    (fp_line (start -3.41 -0.3) (end -2.81 0) (layer F.SilkS) (width 0.12))
    (fp_text user %R (at 5 4.1 180) (layer F.Fab)
      (effects (font (size 1 1) (thickness 0.15)))
    )
    (pad 1 thru_hole roundrect (at 0 1.15 180) (size 2.7 2.7) (drill 1.2) (layers *.Cu *.Mask) (roundrect_rratio 0.25)
      (net 2 GND))
    (pad 2 thru_hole roundrect (at 5 1.15 180) (size 2.7 2.7) (drill 1.2) (layers *.Cu *.Mask) (roundrect_rratio 0.25)
      (net 2 GND))
    (pad 3 thru_hole roundrect (at 10 1.15 180) (size 2.7 2.7) (drill 1.2) (layers *.Cu *.Mask) (roundrect_rratio 0.25)
      (net 2 GND))
    (model ${KISYS3DMOD}/Connector_JST.3dshapes/JST_NV_B03P-NV_1x03_P5.00mm_Vertical.wrl
      (at (xyz 0 0 0))
      (scale (xyz 1 1 1))
      (rotate (xyz 0 0 0))
    )
  )

  (module Connector_JST:JST_NV_B03P-NV_1x03_P5.00mm_Vertical (layer F.Cu) (tedit 65D10F54) (tstamp 65D3CA52)
    (at 150 78.75)
    (descr "JST NV series connector, B03P-NV (http://www.jst-mfg.com/product/pdf/eng/eNV.pdf), generated with kicad-footprint-generator")
    (tags "connector JST NV side entry")
    (path /65C782EF)
    (fp_text reference J4 (at 5 -4.9) (layer F.SilkS)
      (effects (font (size 1 1) (thickness 0.15)))
    )
    (fp_text value Bornier_+5V (at 5 6) (layer F.Fab)
      (effects (font (size 1 1) (thickness 0.15)))
    )
    (fp_text user %R (at 5 4.1) (layer F.Fab)
      (effects (font (size 1 1) (thickness 0.15)))
    )
    (fp_line (start -3.41 -0.3) (end -2.81 0) (layer F.SilkS) (width 0.12))
    (fp_line (start -3.41 0.3) (end -3.41 -0.3) (layer F.SilkS) (width 0.12))
    (fp_line (start -2.81 0) (end -3.41 0.3) (layer F.SilkS) (width 0.12))
    (fp_line (start 12.61 -3.81) (end -2.61 -3.81) (layer F.SilkS) (width 0.12))
    (fp_line (start 12.61 4.91) (end 12.61 -3.81) (layer F.SilkS) (width 0.12))
    (fp_line (start -2.61 4.91) (end 12.61 4.91) (layer F.SilkS) (width 0.12))
    (fp_line (start -2.61 -3.81) (end -2.61 4.91) (layer F.SilkS) (width 0.12))
    (fp_line (start 13 -4.2) (end -3 -4.2) (layer F.CrtYd) (width 0.05))
    (fp_line (start 13 5.3) (end 13 -4.2) (layer F.CrtYd) (width 0.05))
    (fp_line (start -3 5.3) (end 13 5.3) (layer F.CrtYd) (width 0.05))
    (fp_line (start -3 -4.2) (end -3 5.3) (layer F.CrtYd) (width 0.05))
    (fp_line (start -2.5 1) (end -1.5 0) (layer F.Fab) (width 0.1))
    (fp_line (start -2.5 -1) (end -1.5 0) (layer F.Fab) (width 0.1))
    (fp_line (start -2.5 -2) (end 12.5 -2) (layer F.Fab) (width 0.1))
    (fp_line (start 12.5 -3.7) (end -2.5 -3.7) (layer F.Fab) (width 0.1))
    (fp_line (start 12.5 4.8) (end 12.5 -3.7) (layer F.Fab) (width 0.1))
    (fp_line (start -2.5 4.8) (end 12.5 4.8) (layer F.Fab) (width 0.1))
    (fp_line (start -2.5 -3.7) (end -2.5 4.8) (layer F.Fab) (width 0.1))
    (pad 3 thru_hole roundrect (at 10 1.15) (size 2.7 2.7) (drill 1.2) (layers *.Cu *.Mask) (roundrect_rratio 0.25)
      (net 4 "Net-(C4-Pad1)"))
    (pad 2 thru_hole roundrect (at 5 1.15) (size 2.7 2.7) (drill 1.2) (layers *.Cu *.Mask) (roundrect_rratio 0.25)
      (net 4 "Net-(C4-Pad1)"))
    (pad 1 thru_hole roundrect (at 0 1.15) (size 2.7 2.7) (drill 1.2) (layers *.Cu *.Mask) (roundrect_rratio 0.25)
      (net 4 "Net-(C4-Pad1)"))
    (model ${KISYS3DMOD}/Connector_JST.3dshapes/JST_NV_B03P-NV_1x03_P5.00mm_Vertical.wrl
      (at (xyz 0 0 0))
      (scale (xyz 1 1 1))
      (rotate (xyz 0 0 0))
    )
  )

  (module Capacitor_SMD:CP_Elec_6.3x5.8 (layer F.Cu) (tedit 5A841F9D) (tstamp 65DB6D7A)
    (at 147 106.5 270)
    (descr "SMT capacitor, aluminium electrolytic, 6.3x5.8, Nichicon ")
    (tags "Capacitor Electrolytic")
    (path /65C506CE)
    (attr smd)
    (fp_text reference C1 (at 0 -4.35 270) (layer F.SilkS)
      (effects (font (size 1 1) (thickness 0.15)))
    )
    (fp_text value 0.33µF (at 0 4.35 270) (layer F.Fab)
      (effects (font (size 1 1) (thickness 0.15)))
    )
    (fp_circle (center 0 0) (end 3.15 0) (layer F.Fab) (width 0.1))
    (fp_line (start 3.3 -3.3) (end 3.3 3.3) (layer F.Fab) (width 0.1))
    (fp_line (start -2.3 -3.3) (end 3.3 -3.3) (layer F.Fab) (width 0.1))
    (fp_line (start -2.3 3.3) (end 3.3 3.3) (layer F.Fab) (width 0.1))
    (fp_line (start -3.3 -2.3) (end -3.3 2.3) (layer F.Fab) (width 0.1))
    (fp_line (start -3.3 -2.3) (end -2.3 -3.3) (layer F.Fab) (width 0.1))
    (fp_line (start -3.3 2.3) (end -2.3 3.3) (layer F.Fab) (width 0.1))
    (fp_line (start -2.704838 -1.33) (end -2.074838 -1.33) (layer F.Fab) (width 0.1))
    (fp_line (start -2.389838 -1.645) (end -2.389838 -1.015) (layer F.Fab) (width 0.1))
    (fp_line (start 3.41 3.41) (end 3.41 1.06) (layer F.SilkS) (width 0.12))
    (fp_line (start 3.41 -3.41) (end 3.41 -1.06) (layer F.SilkS) (width 0.12))
    (fp_line (start -2.345563 -3.41) (end 3.41 -3.41) (layer F.SilkS) (width 0.12))
    (fp_line (start -2.345563 3.41) (end 3.41 3.41) (layer F.SilkS) (width 0.12))
    (fp_line (start -3.41 2.345563) (end -3.41 1.06) (layer F.SilkS) (width 0.12))
    (fp_line (start -3.41 -2.345563) (end -3.41 -1.06) (layer F.SilkS) (width 0.12))
    (fp_line (start -3.41 -2.345563) (end -2.345563 -3.41) (layer F.SilkS) (width 0.12))
    (fp_line (start -3.41 2.345563) (end -2.345563 3.41) (layer F.SilkS) (width 0.12))
    (fp_line (start -4.4375 -1.8475) (end -3.65 -1.8475) (layer F.SilkS) (width 0.12))
    (fp_line (start -4.04375 -2.24125) (end -4.04375 -1.45375) (layer F.SilkS) (width 0.12))
    (fp_line (start 3.55 -3.55) (end 3.55 -1.05) (layer F.CrtYd) (width 0.05))
    (fp_line (start 3.55 -1.05) (end 4.7 -1.05) (layer F.CrtYd) (width 0.05))
    (fp_line (start 4.7 -1.05) (end 4.7 1.05) (layer F.CrtYd) (width 0.05))
    (fp_line (start 4.7 1.05) (end 3.55 1.05) (layer F.CrtYd) (width 0.05))
    (fp_line (start 3.55 1.05) (end 3.55 3.55) (layer F.CrtYd) (width 0.05))
    (fp_line (start -2.4 3.55) (end 3.55 3.55) (layer F.CrtYd) (width 0.05))
    (fp_line (start -2.4 -3.55) (end 3.55 -3.55) (layer F.CrtYd) (width 0.05))
    (fp_line (start -3.55 2.4) (end -2.4 3.55) (layer F.CrtYd) (width 0.05))
    (fp_line (start -3.55 -2.4) (end -2.4 -3.55) (layer F.CrtYd) (width 0.05))
    (fp_line (start -3.55 -2.4) (end -3.55 -1.05) (layer F.CrtYd) (width 0.05))
    (fp_line (start -3.55 1.05) (end -3.55 2.4) (layer F.CrtYd) (width 0.05))
    (fp_line (start -3.55 -1.05) (end -4.7 -1.05) (layer F.CrtYd) (width 0.05))
    (fp_line (start -4.7 -1.05) (end -4.7 1.05) (layer F.CrtYd) (width 0.05))
    (fp_line (start -4.7 1.05) (end -3.55 1.05) (layer F.CrtYd) (width 0.05))
    (fp_text user %R (at 0 0 270) (layer F.Fab)
      (effects (font (size 1 1) (thickness 0.15)))
    )
    (pad 1 smd rect (at -2.7 0 270) (size 3.5 1.6) (layers F.Cu F.Paste F.Mask)
      (net 1 +12V))
    (pad 2 smd rect (at 2.7 0 270) (size 3.5 1.6) (layers F.Cu F.Paste F.Mask)
      (net 2 GND))
    (model ${KISYS3DMOD}/Capacitor_SMD.3dshapes/CP_Elec_6.3x5.8.wrl
      (at (xyz 0 0 0))
      (scale (xyz 1 1 1))
      (rotate (xyz 0 0 0))
    )
  )

  (module Capacitor_SMD:CP_Elec_6.3x5.8 (layer F.Cu) (tedit 5A841F9D) (tstamp 65E9AD50)
    (at 142 81.5 90)
    (descr "SMT capacitor, aluminium electrolytic, 6.3x5.8, Nichicon ")
    (tags "Capacitor Electrolytic")
    (path /65C5014F)
    (attr smd)
    (fp_text reference C2 (at 0 -4.35 90) (layer F.SilkS)
      (effects (font (size 1 1) (thickness 0.15)))
    )
    (fp_text value 0.33µF (at 0 4.35 90) (layer F.Fab)
      (effects (font (size 1 1) (thickness 0.15)))
    )
    (fp_text user %R (at 0 0 90) (layer F.Fab)
      (effects (font (size 1 1) (thickness 0.15)))
    )
    (fp_line (start -4.7 1.05) (end -3.55 1.05) (layer F.CrtYd) (width 0.05))
    (fp_line (start -4.7 -1.05) (end -4.7 1.05) (layer F.CrtYd) (width 0.05))
    (fp_line (start -3.55 -1.05) (end -4.7 -1.05) (layer F.CrtYd) (width 0.05))
    (fp_line (start -3.55 1.05) (end -3.55 2.4) (layer F.CrtYd) (width 0.05))
    (fp_line (start -3.55 -2.4) (end -3.55 -1.05) (layer F.CrtYd) (width 0.05))
    (fp_line (start -3.55 -2.4) (end -2.4 -3.55) (layer F.CrtYd) (width 0.05))
    (fp_line (start -3.55 2.4) (end -2.4 3.55) (layer F.CrtYd) (width 0.05))
    (fp_line (start -2.4 -3.55) (end 3.55 -3.55) (layer F.CrtYd) (width 0.05))
    (fp_line (start -2.4 3.55) (end 3.55 3.55) (layer F.CrtYd) (width 0.05))
    (fp_line (start 3.55 1.05) (end 3.55 3.55) (layer F.CrtYd) (width 0.05))
    (fp_line (start 4.7 1.05) (end 3.55 1.05) (layer F.CrtYd) (width 0.05))
    (fp_line (start 4.7 -1.05) (end 4.7 1.05) (layer F.CrtYd) (width 0.05))
    (fp_line (start 3.55 -1.05) (end 4.7 -1.05) (layer F.CrtYd) (width 0.05))
    (fp_line (start 3.55 -3.55) (end 3.55 -1.05) (layer F.CrtYd) (width 0.05))
    (fp_line (start -4.04375 -2.24125) (end -4.04375 -1.45375) (layer F.SilkS) (width 0.12))
    (fp_line (start -4.4375 -1.8475) (end -3.65 -1.8475) (layer F.SilkS) (width 0.12))
    (fp_line (start -3.41 2.345563) (end -2.345563 3.41) (layer F.SilkS) (width 0.12))
    (fp_line (start -3.41 -2.345563) (end -2.345563 -3.41) (layer F.SilkS) (width 0.12))
    (fp_line (start -3.41 -2.345563) (end -3.41 -1.06) (layer F.SilkS) (width 0.12))
    (fp_line (start -3.41 2.345563) (end -3.41 1.06) (layer F.SilkS) (width 0.12))
    (fp_line (start -2.345563 3.41) (end 3.41 3.41) (layer F.SilkS) (width 0.12))
    (fp_line (start -2.345563 -3.41) (end 3.41 -3.41) (layer F.SilkS) (width 0.12))
    (fp_line (start 3.41 -3.41) (end 3.41 -1.06) (layer F.SilkS) (width 0.12))
    (fp_line (start 3.41 3.41) (end 3.41 1.06) (layer F.SilkS) (width 0.12))
    (fp_line (start -2.389838 -1.645) (end -2.389838 -1.015) (layer F.Fab) (width 0.1))
    (fp_line (start -2.704838 -1.33) (end -2.074838 -1.33) (layer F.Fab) (width 0.1))
    (fp_line (start -3.3 2.3) (end -2.3 3.3) (layer F.Fab) (width 0.1))
    (fp_line (start -3.3 -2.3) (end -2.3 -3.3) (layer F.Fab) (width 0.1))
    (fp_line (start -3.3 -2.3) (end -3.3 2.3) (layer F.Fab) (width 0.1))
    (fp_line (start -2.3 3.3) (end 3.3 3.3) (layer F.Fab) (width 0.1))
    (fp_line (start -2.3 -3.3) (end 3.3 -3.3) (layer F.Fab) (width 0.1))
    (fp_line (start 3.3 -3.3) (end 3.3 3.3) (layer F.Fab) (width 0.1))
    (fp_circle (center 0 0) (end 3.15 0) (layer F.Fab) (width 0.1))
    (pad 2 smd rect (at 2.7 0 90) (size 3.5 1.6) (layers F.Cu F.Paste F.Mask)
      (net 2 GND))
    (pad 1 smd rect (at -2.7 0 90) (size 3.5 1.6) (layers F.Cu F.Paste F.Mask)
      (net 1 +12V))
    (model ${KISYS3DMOD}/Capacitor_SMD.3dshapes/CP_Elec_6.3x5.8.wrl
      (at (xyz 0 0 0))
      (scale (xyz 1 1 1))
      (rotate (xyz 0 0 0))
    )
  )

  (module Capacitor_SMD:CP_Elec_6.3x5.8 (layer F.Cu) (tedit 5A841F9D) (tstamp 65DB6DC8)
    (at 138.75 96.5)
    (descr "SMT capacitor, aluminium electrolytic, 6.3x5.8, Nichicon ")
    (tags "Capacitor Electrolytic")
    (path /65C50945)
    (attr smd)
    (fp_text reference C3 (at 0 -4.35) (layer F.SilkS)
      (effects (font (size 1 1) (thickness 0.15)))
    )
    (fp_text value 0.33µF (at 0 4.35) (layer F.Fab)
      (effects (font (size 1 1) (thickness 0.15)))
    )
    (fp_text user %R (at 0 0) (layer F.Fab)
      (effects (font (size 1 1) (thickness 0.15)))
    )
    (fp_line (start -4.7 1.05) (end -3.55 1.05) (layer F.CrtYd) (width 0.05))
    (fp_line (start -4.7 -1.05) (end -4.7 1.05) (layer F.CrtYd) (width 0.05))
    (fp_line (start -3.55 -1.05) (end -4.7 -1.05) (layer F.CrtYd) (width 0.05))
    (fp_line (start -3.55 1.05) (end -3.55 2.4) (layer F.CrtYd) (width 0.05))
    (fp_line (start -3.55 -2.4) (end -3.55 -1.05) (layer F.CrtYd) (width 0.05))
    (fp_line (start -3.55 -2.4) (end -2.4 -3.55) (layer F.CrtYd) (width 0.05))
    (fp_line (start -3.55 2.4) (end -2.4 3.55) (layer F.CrtYd) (width 0.05))
    (fp_line (start -2.4 -3.55) (end 3.55 -3.55) (layer F.CrtYd) (width 0.05))
    (fp_line (start -2.4 3.55) (end 3.55 3.55) (layer F.CrtYd) (width 0.05))
    (fp_line (start 3.55 1.05) (end 3.55 3.55) (layer F.CrtYd) (width 0.05))
    (fp_line (start 4.7 1.05) (end 3.55 1.05) (layer F.CrtYd) (width 0.05))
    (fp_line (start 4.7 -1.05) (end 4.7 1.05) (layer F.CrtYd) (width 0.05))
    (fp_line (start 3.55 -1.05) (end 4.7 -1.05) (layer F.CrtYd) (width 0.05))
    (fp_line (start 3.55 -3.55) (end 3.55 -1.05) (layer F.CrtYd) (width 0.05))
    (fp_line (start -4.04375 -2.24125) (end -4.04375 -1.45375) (layer F.SilkS) (width 0.12))
    (fp_line (start -4.4375 -1.8475) (end -3.65 -1.8475) (layer F.SilkS) (width 0.12))
    (fp_line (start -3.41 2.345563) (end -2.345563 3.41) (layer F.SilkS) (width 0.12))
    (fp_line (start -3.41 -2.345563) (end -2.345563 -3.41) (layer F.SilkS) (width 0.12))
    (fp_line (start -3.41 -2.345563) (end -3.41 -1.06) (layer F.SilkS) (width 0.12))
    (fp_line (start -3.41 2.345563) (end -3.41 1.06) (layer F.SilkS) (width 0.12))
    (fp_line (start -2.345563 3.41) (end 3.41 3.41) (layer F.SilkS) (width 0.12))
    (fp_line (start -2.345563 -3.41) (end 3.41 -3.41) (layer F.SilkS) (width 0.12))
    (fp_line (start 3.41 -3.41) (end 3.41 -1.06) (layer F.SilkS) (width 0.12))
    (fp_line (start 3.41 3.41) (end 3.41 1.06) (layer F.SilkS) (width 0.12))
    (fp_line (start -2.389838 -1.645) (end -2.389838 -1.015) (layer F.Fab) (width 0.1))
    (fp_line (start -2.704838 -1.33) (end -2.074838 -1.33) (layer F.Fab) (width 0.1))
    (fp_line (start -3.3 2.3) (end -2.3 3.3) (layer F.Fab) (width 0.1))
    (fp_line (start -3.3 -2.3) (end -2.3 -3.3) (layer F.Fab) (width 0.1))
    (fp_line (start -3.3 -2.3) (end -3.3 2.3) (layer F.Fab) (width 0.1))
    (fp_line (start -2.3 3.3) (end 3.3 3.3) (layer F.Fab) (width 0.1))
    (fp_line (start -2.3 -3.3) (end 3.3 -3.3) (layer F.Fab) (width 0.1))
    (fp_line (start 3.3 -3.3) (end 3.3 3.3) (layer F.Fab) (width 0.1))
    (fp_circle (center 0 0) (end 3.15 0) (layer F.Fab) (width 0.1))
    (pad 2 smd rect (at 2.7 0) (size 3.5 1.6) (layers F.Cu F.Paste F.Mask)
      (net 2 GND))
    (pad 1 smd rect (at -2.7 0) (size 3.5 1.6) (layers F.Cu F.Paste F.Mask)
      (net 3 "Net-(C3-Pad1)"))
    (model ${KISYS3DMOD}/Capacitor_SMD.3dshapes/CP_Elec_6.3x5.8.wrl
      (at (xyz 0 0 0))
      (scale (xyz 1 1 1))
      (rotate (xyz 0 0 0))
    )
  )

  (module Capacitor_SMD:CP_Elec_6.3x5.8 (layer F.Cu) (tedit 5A841F9D) (tstamp 65DB6DEF)
    (at 149.75 96.5 180)
    (descr "SMT capacitor, aluminium electrolytic, 6.3x5.8, Nichicon ")
    (tags "Capacitor Electrolytic")
    (path /65C50103)
    (attr smd)
    (fp_text reference C4 (at 0 -4.35 180) (layer F.SilkS)
      (effects (font (size 1 1) (thickness 0.15)))
    )
    (fp_text value 0.33µF (at 0 4.35 180) (layer F.Fab)
      (effects (font (size 1 1) (thickness 0.15)))
    )
    (fp_circle (center 0 0) (end 3.15 0) (layer F.Fab) (width 0.1))
    (fp_line (start 3.3 -3.3) (end 3.3 3.3) (layer F.Fab) (width 0.1))
    (fp_line (start -2.3 -3.3) (end 3.3 -3.3) (layer F.Fab) (width 0.1))
    (fp_line (start -2.3 3.3) (end 3.3 3.3) (layer F.Fab) (width 0.1))
    (fp_line (start -3.3 -2.3) (end -3.3 2.3) (layer F.Fab) (width 0.1))
    (fp_line (start -3.3 -2.3) (end -2.3 -3.3) (layer F.Fab) (width 0.1))
    (fp_line (start -3.3 2.3) (end -2.3 3.3) (layer F.Fab) (width 0.1))
    (fp_line (start -2.704838 -1.33) (end -2.074838 -1.33) (layer F.Fab) (width 0.1))
    (fp_line (start -2.389838 -1.645) (end -2.389838 -1.015) (layer F.Fab) (width 0.1))
    (fp_line (start 3.41 3.41) (end 3.41 1.06) (layer F.SilkS) (width 0.12))
    (fp_line (start 3.41 -3.41) (end 3.41 -1.06) (layer F.SilkS) (width 0.12))
    (fp_line (start -2.345563 -3.41) (end 3.41 -3.41) (layer F.SilkS) (width 0.12))
    (fp_line (start -2.345563 3.41) (end 3.41 3.41) (layer F.SilkS) (width 0.12))
    (fp_line (start -3.41 2.345563) (end -3.41 1.06) (layer F.SilkS) (width 0.12))
    (fp_line (start -3.41 -2.345563) (end -3.41 -1.06) (layer F.SilkS) (width 0.12))
    (fp_line (start -3.41 -2.345563) (end -2.345563 -3.41) (layer F.SilkS) (width 0.12))
    (fp_line (start -3.41 2.345563) (end -2.345563 3.41) (layer F.SilkS) (width 0.12))
    (fp_line (start -4.4375 -1.8475) (end -3.65 -1.8475) (layer F.SilkS) (width 0.12))
    (fp_line (start -4.04375 -2.24125) (end -4.04375 -1.45375) (layer F.SilkS) (width 0.12))
    (fp_line (start 3.55 -3.55) (end 3.55 -1.05) (layer F.CrtYd) (width 0.05))
    (fp_line (start 3.55 -1.05) (end 4.7 -1.05) (layer F.CrtYd) (width 0.05))
    (fp_line (start 4.7 -1.05) (end 4.7 1.05) (layer F.CrtYd) (width 0.05))
    (fp_line (start 4.7 1.05) (end 3.55 1.05) (layer F.CrtYd) (width 0.05))
    (fp_line (start 3.55 1.05) (end 3.55 3.55) (layer F.CrtYd) (width 0.05))
    (fp_line (start -2.4 3.55) (end 3.55 3.55) (layer F.CrtYd) (width 0.05))
    (fp_line (start -2.4 -3.55) (end 3.55 -3.55) (layer F.CrtYd) (width 0.05))
    (fp_line (start -3.55 2.4) (end -2.4 3.55) (layer F.CrtYd) (width 0.05))
    (fp_line (start -3.55 -2.4) (end -2.4 -3.55) (layer F.CrtYd) (width 0.05))
    (fp_line (start -3.55 -2.4) (end -3.55 -1.05) (layer F.CrtYd) (width 0.05))
    (fp_line (start -3.55 1.05) (end -3.55 2.4) (layer F.CrtYd) (width 0.05))
    (fp_line (start -3.55 -1.05) (end -4.7 -1.05) (layer F.CrtYd) (width 0.05))
    (fp_line (start -4.7 -1.05) (end -4.7 1.05) (layer F.CrtYd) (width 0.05))
    (fp_line (start -4.7 1.05) (end -3.55 1.05) (layer F.CrtYd) (width 0.05))
    (fp_text user %R (at 0 0 180) (layer F.Fab)
      (effects (font (size 1 1) (thickness 0.15)))
    )
    (pad 1 smd rect (at -2.7 0 180) (size 3.5 1.6) (layers F.Cu F.Paste F.Mask)
      (net 4 "Net-(C4-Pad1)"))
    (pad 2 smd rect (at 2.7 0 180) (size 3.5 1.6) (layers F.Cu F.Paste F.Mask)
      (net 2 GND))
    (model ${KISYS3DMOD}/Capacitor_SMD.3dshapes/CP_Elec_6.3x5.8.wrl
      (at (xyz 0 0 0))
      (scale (xyz 1 1 1))
      (rotate (xyz 0 0 0))
    )
  )

  (module Package_TO_SOT_SMD:TO-263-2 (layer F.Cu) (tedit 65D0F181) (tstamp 65DD418E)
    (at 123.75 94 180)
    (descr "TO-263 / D2PAK / DDPAK SMD package, http://www.infineon.com/cms/en/product/packages/PG-TO263/PG-TO263-3-1/")
    (tags "D2PAK DDPAK TO-263 D2PAK-3 TO-263-3 SOT-404")
    (path /65C4EA29)
    (attr smd)
    (fp_text reference U1 (at 0 -6.65 180) (layer F.SilkS)
      (effects (font (size 1 1) (thickness 0.15)))
    )
    (fp_text value LM7809_TO220 (at 0 6.65 180) (layer F.Fab)
      (effects (font (size 1 1) (thickness 0.15)))
    )
    (fp_text user %R (at 0 0 180) (layer F.Fab)
      (effects (font (size 1 1) (thickness 0.15)))
    )
    (fp_line (start 8.32 -5.65) (end -8.32 -5.65) (layer F.CrtYd) (width 0.05))
    (fp_line (start 8.32 5.65) (end 8.32 -5.65) (layer F.CrtYd) (width 0.05))
    (fp_line (start -8.32 5.65) (end 8.32 5.65) (layer F.CrtYd) (width 0.05))
    (fp_line (start -8.32 -5.65) (end -8.32 5.65) (layer F.CrtYd) (width 0.05))
    (fp_line (start -2.95 3.39) (end -4.05 3.39) (layer F.SilkS) (width 0.12))
    (fp_line (start -2.95 5.2) (end -2.95 3.39) (layer F.SilkS) (width 0.12))
    (fp_line (start -1.45 5.2) (end -2.95 5.2) (layer F.SilkS) (width 0.12))
    (fp_line (start -2.95 -3.39) (end -8.075 -3.39) (layer F.SilkS) (width 0.12))
    (fp_line (start -2.95 -5.2) (end -2.95 -3.39) (layer F.SilkS) (width 0.12))
    (fp_line (start -1.45 -5.2) (end -2.95 -5.2) (layer F.SilkS) (width 0.12))
    (fp_line (start -7.45 3.04) (end -2.75 3.04) (layer F.Fab) (width 0.1))
    (fp_line (start -7.45 2.04) (end -7.45 3.04) (layer F.Fab) (width 0.1))
    (fp_line (start -2.75 2.04) (end -7.45 2.04) (layer F.Fab) (width 0.1))
    (fp_line (start -7.45 -2.04) (end -2.75 -2.04) (layer F.Fab) (width 0.1))
    (fp_line (start -7.45 -3.04) (end -7.45 -2.04) (layer F.Fab) (width 0.1))
    (fp_line (start -2.75 -3.04) (end -7.45 -3.04) (layer F.Fab) (width 0.1))
    (fp_line (start -1.75 -5) (end 6.5 -5) (layer F.Fab) (width 0.1))
    (fp_line (start -2.75 -4) (end -1.75 -5) (layer F.Fab) (width 0.1))
    (fp_line (start -2.75 5) (end -2.75 -4) (layer F.Fab) (width 0.1))
    (fp_line (start 6.5 5) (end -2.75 5) (layer F.Fab) (width 0.1))
    (fp_line (start 6.5 -5) (end 6.5 5) (layer F.Fab) (width 0.1))
    (fp_line (start 7.5 5) (end 6.5 5) (layer F.Fab) (width 0.1))
    (fp_line (start 7.5 -5) (end 7.5 5) (layer F.Fab) (width 0.1))
    (fp_line (start 6.5 -5) (end 7.5 -5) (layer F.Fab) (width 0.1))
    (pad "" smd rect (at 0.95 2.775 180) (size 4.55 5.25) (layers F.Paste))
    (pad "" smd rect (at 5.8 -2.775 180) (size 4.55 5.25) (layers F.Paste))
    (pad "" smd rect (at 0.95 -2.775 180) (size 4.55 5.25) (layers F.Paste))
    (pad "" smd rect (at 5.8 2.775 180) (size 4.55 5.25) (layers F.Paste))
    (pad 2 smd rect (at 13.375 0 180) (size 30 30) (layers F.Cu F.Mask)
      (net 2 GND))
    (pad 3 smd rect (at -5.775 2.54 180) (size 4.6 1.1) (layers F.Cu F.Paste F.Mask)
      (net 3 "Net-(C3-Pad1)"))
    (pad 1 smd rect (at -5.775 -2.54 180) (size 4.6 1.1) (layers F.Cu F.Paste F.Mask)
      (net 1 +12V))
    (model ${KISYS3DMOD}/Package_TO_SOT_SMD.3dshapes/TO-263-2.wrl
      (at (xyz 0 0 0))
      (scale (xyz 1 1 1))
      (rotate (xyz 0 0 0))
    )
  )

  (module Package_TO_SOT_SMD:TO-263-2 (layer F.Cu) (tedit 65D0F166) (tstamp 65DD41B1)
    (at 165.75 94)
    (descr "TO-263 / D2PAK / DDPAK SMD package, http://www.infineon.com/cms/en/product/packages/PG-TO263/PG-TO263-3-1/")
    (tags "D2PAK DDPAK TO-263 D2PAK-3 TO-263-3 SOT-404")
    (path /65C4E9A0)
    (attr smd)
    (fp_text reference U2 (at 0 -6.65) (layer F.SilkS)
      (effects (font (size 1 1) (thickness 0.15)))
    )
    (fp_text value LM7805_TO220 (at 0 6.65) (layer F.Fab)
      (effects (font (size 1 1) (thickness 0.15)))
    )
    (fp_line (start 6.5 -5) (end 7.5 -5) (layer F.Fab) (width 0.1))
    (fp_line (start 7.5 -5) (end 7.5 5) (layer F.Fab) (width 0.1))
    (fp_line (start 7.5 5) (end 6.5 5) (layer F.Fab) (width 0.1))
    (fp_line (start 6.5 -5) (end 6.5 5) (layer F.Fab) (width 0.1))
    (fp_line (start 6.5 5) (end -2.75 5) (layer F.Fab) (width 0.1))
    (fp_line (start -2.75 5) (end -2.75 -4) (layer F.Fab) (width 0.1))
    (fp_line (start -2.75 -4) (end -1.75 -5) (layer F.Fab) (width 0.1))
    (fp_line (start -1.75 -5) (end 6.5 -5) (layer F.Fab) (width 0.1))
    (fp_line (start -2.75 -3.04) (end -7.45 -3.04) (layer F.Fab) (width 0.1))
    (fp_line (start -7.45 -3.04) (end -7.45 -2.04) (layer F.Fab) (width 0.1))
    (fp_line (start -7.45 -2.04) (end -2.75 -2.04) (layer F.Fab) (width 0.1))
    (fp_line (start -2.75 2.04) (end -7.45 2.04) (layer F.Fab) (width 0.1))
    (fp_line (start -7.45 2.04) (end -7.45 3.04) (layer F.Fab) (width 0.1))
    (fp_line (start -7.45 3.04) (end -2.75 3.04) (layer F.Fab) (width 0.1))
    (fp_line (start -1.45 -5.2) (end -2.95 -5.2) (layer F.SilkS) (width 0.12))
    (fp_line (start -2.95 -5.2) (end -2.95 -3.39) (layer F.SilkS) (width 0.12))
    (fp_line (start -2.95 -3.39) (end -8.075 -3.39) (layer F.SilkS) (width 0.12))
    (fp_line (start -1.45 5.2) (end -2.95 5.2) (layer F.SilkS) (width 0.12))
    (fp_line (start -2.95 5.2) (end -2.95 3.39) (layer F.SilkS) (width 0.12))
    (fp_line (start -2.95 3.39) (end -4.05 3.39) (layer F.SilkS) (width 0.12))
    (fp_line (start -8.32 -5.65) (end -8.32 5.65) (layer F.CrtYd) (width 0.05))
    (fp_line (start -8.32 5.65) (end 8.32 5.65) (layer F.CrtYd) (width 0.05))
    (fp_line (start 8.32 5.65) (end 8.32 -5.65) (layer F.CrtYd) (width 0.05))
    (fp_line (start 8.32 -5.65) (end -8.32 -5.65) (layer F.CrtYd) (width 0.05))
    (fp_text user %R (at 0 0) (layer F.Fab)
      (effects (font (size 1 1) (thickness 0.15)))
    )
    (pad 1 smd rect (at -5.775 -2.54) (size 4.6 1.1) (layers F.Cu F.Paste F.Mask)
      (net 1 +12V))
    (pad 3 smd rect (at -5.775 2.54) (size 4.6 1.1) (layers F.Cu F.Paste F.Mask)
      (net 4 "Net-(C4-Pad1)"))
    (pad 2 smd rect (at 13.375 0) (size 30 30) (layers F.Cu F.Mask)
      (net 2 GND))
    (pad "" smd rect (at 5.8 2.775) (size 4.55 5.25) (layers F.Paste))
    (pad "" smd rect (at 0.95 -2.775) (size 4.55 5.25) (layers F.Paste))
    (pad "" smd rect (at 5.8 -2.775) (size 4.55 5.25) (layers F.Paste))
    (pad "" smd rect (at 0.95 2.775) (size 4.55 5.25) (layers F.Paste))
    (model ${KISYS3DMOD}/Package_TO_SOT_SMD.3dshapes/TO-263-2.wrl
      (at (xyz 0 0 0))
      (scale (xyz 1 1 1))
      (rotate (xyz 0 0 0))
    )
  )

  (gr_text GND (at 124.9045 111.252) (layer F.Cu) (tstamp 65DE7F5D)
    (effects (font (size 1 1) (thickness 0.25)))
  )
  (gr_text + (at 153.7843 98.171) (layer F.Cu) (tstamp 65D8634F)
    (effects (font (size 1 1) (thickness 0.25)))
  )
  (gr_line (start 135.5725 89.8271) (end 153.8097 89.8271) (layer F.Fab) (width 0.2))
  (dimension 20.0025 (width 0.3) (layer Dwgs.User)
    (gr_text "20,003 mm" (at 209.35858 91.190191 90) (layer Dwgs.User)
      (effects (font (size 1.5 1.5) (thickness 0.3)))
    )
    (feature1 (pts (xy 196.97158 81.188941) (xy 207.845001 81.188941)))
    (feature2 (pts (xy 196.97158 101.191441) (xy 207.845001 101.191441)))
    (crossbar (pts (xy 207.25858 101.191441) (xy 207.25858 81.188941)))
    (arrow1a (pts (xy 207.25858 81.188941) (xy 207.845001 82.315445)))
    (arrow1b (pts (xy 207.25858 81.188941) (xy 206.672159 82.315445)))
    (arrow2a (pts (xy 207.25858 101.191441) (xy 207.845001 100.064937)))
    (arrow2b (pts (xy 207.25858 101.191441) (xy 206.672159 100.064937)))
  )
  (gr_text + (at 142.367 88) (layer F.Cu)
    (effects (font (size 1 1) (thickness 0.25)))
  )
  (gr_text + (at 146.05 88) (layer F.Cu)
    (effects (font (size 1 1) (thickness 0.25)))
  )
  (gr_text + (at 148.971 102.2985) (layer F.Cu)
    (effects (font (size 1 1) (thickness 0.25)))
  )
  (gr_text + (at 134.747 98.171) (layer F.Cu)
    (effects (font (size 1 1) (thickness 0.25)))
  )
  (gr_text + (at 140.081 85.598) (layer F.Cu)
    (effects (font (size 1 1) (thickness 0.25)))
  )
  (gr_text "IUT GEII  Site de Brive\n BUT1    2023-2024\n\nPATIENT Lucas\nUSCHE Lilian" (at 179.5145 92.5195) (layer B.Cu)
    (effects (font (size 1.5 1.5) (thickness 0.3)) (justify mirror))
  )
  (gr_text 7809 (at 128.75 99.5) (layer F.Cu) (tstamp 65D85163)
    (effects (font (size 1 1) (thickness 0.25)))
  )
  (gr_text 7805 (at 160.75 99.5) (layer F.Cu) (tstamp 65DE7EF2)
    (effects (font (size 1 1) (thickness 0.25)))
  )
  (gr_text LED (at 144.272 89.25) (layer F.Cu) (tstamp 65D86104)
    (effects (font (size 1 1) (thickness 0.25)))
  )
  (gr_text R2 (at 153.75 89.25) (layer F.Cu) (tstamp 65DF06B3)
    (effects (font (size 1 1) (thickness 0.25)))
  )
  (gr_text R1 (at 134.75 89.25) (layer F.Cu) (tstamp 65D85136)
    (effects (font (size 1 1) (thickness 0.25)))
  )
  (gr_text C1 (at 145.0975 106.3625 90) (layer F.Cu)
    (effects (font (size 1 1) (thickness 0.25)))
  )
  (gr_text C3 (at 138.684 94.4245) (layer F.Cu)
    (effects (font (size 1 1) (thickness 0.25)))
  )
  (gr_text C4 (at 149.733 94.615) (layer F.Cu)
    (effects (font (size 1 1) (thickness 0.25)))
  )
  (gr_text C2 (at 144.018 81.3435 270) (layer F.Cu) (tstamp 65D8504D)
    (effects (font (size 1 1) (thickness 0.25)))
  )
  (gr_text GND (at 138.6205 76.75 180) (layer F.Cu) (tstamp 65D84F6D)
    (effects (font (size 1 1) (thickness 0.25)))
  )
  (gr_text GND (at 164.3761 111.252) (layer F.Cu) (tstamp 65D84DFD)
    (effects (font (size 1 1) (thickness 0.25)))
  )
  (gr_text +5V (at 164.6428 76.7715 180) (layer F.Cu) (tstamp 65DE7FC3)
    (effects (font (size 1 1) (thickness 0.25)))
  )
  (gr_text +9V (at 124.841 76.75 180) (layer F.Cu) (tstamp 65D85D0E)
    (effects (font (size 1 1) (thickness 0.25)))
  )
  (gr_text +12V (at 150.0632 111.25) (layer F.Cu) (tstamp 65DE7F66)
    (effects (font (size 1 1) (thickness 0.25)))
  )
  (gr_line (start 197.258 121.247) (end 197.258 69.05) (layer Dwgs.User) (width 0.2))
  (gr_line (start 92.229 107.531) (end 92.229 67.5895) (layer Dwgs.User) (width 0.2))
  (dimension 40 (width 0.3) (layer Dwgs.User)
    (gr_text "40,000 mm" (at 80.65 94 90) (layer Dwgs.User)
      (effects (font (size 1.5 1.5) (thickness 0.3)))
    )
    (feature1 (pts (xy 90 74) (xy 82.163579 74)))
    (feature2 (pts (xy 90 114) (xy 82.163579 114)))
    (crossbar (pts (xy 82.75 114) (xy 82.75 74)))
    (arrow1a (pts (xy 82.75 74) (xy 83.336421 75.126504)))
    (arrow1b (pts (xy 82.75 74) (xy 82.163579 75.126504)))
    (arrow2a (pts (xy 82.75 114) (xy 83.336421 112.873496)))
    (arrow2b (pts (xy 82.75 114) (xy 82.163579 112.873496)))
  )
  (gr_line (start 200 114) (end 200 74) (layer Edge.Cuts) (width 0.15))
  (gr_line (start 90 114) (end 200 114) (layer Edge.Cuts) (width 0.15))
  (gr_line (start 90 74) (end 90 114) (layer Edge.Cuts) (width 0.15))
  (gr_line (start 200 74) (end 90 74) (layer Edge.Cuts) (width 0.15))
  (dimension 110 (width 0.3) (layer Dwgs.User)
    (gr_text "110,000 mm" (at 145 129.6) (layer Dwgs.User)
      (effects (font (size 1.5 1.5) (thickness 0.3)))
    )
    (feature1 (pts (xy 90 114) (xy 90 128.086421)))
    (feature2 (pts (xy 200 114) (xy 200 128.086421)))
    (crossbar (pts (xy 200 127.5) (xy 90 127.5)))
    (arrow1a (pts (xy 90 127.5) (xy 91.126504 126.913579)))
    (arrow1b (pts (xy 90 127.5) (xy 91.126504 128.086421)))
    (arrow2a (pts (xy 200 127.5) (xy 198.873496 126.913579)))
    (arrow2b (pts (xy 200 127.5) (xy 198.873496 128.086421)))
  )
  (dimension 105.009733 (width 0.3) (layer Dwgs.User)
    (gr_text "105,010 mm" (at 144.731628 123.670951 -0.006961064822) (layer Dwgs.User)
      (effects (font (size 1.5 1.5) (thickness 0.3)))
    )
    (feature1 (pts (xy 92.229 105.245) (xy 92.226946 122.150993)))
    (feature2 (pts (xy 197.238732 105.257758) (xy 197.236678 122.163751)))
    (crossbar (pts (xy 197.236749 121.57733) (xy 92.227017 121.564572)))
    (arrow1a (pts (xy 92.227017 121.564572) (xy 93.353592 120.978288)))
    (arrow1b (pts (xy 92.227017 121.564572) (xy 93.35345 122.15113)))
    (arrow2a (pts (xy 197.236749 121.57733) (xy 196.110316 120.990772)))
    (arrow2b (pts (xy 197.236749 121.57733) (xy 196.110174 122.163614)))
  )
  (dimension 25.019 (width 0.3) (layer Dwgs.User)
    (gr_text "25,019 mm" (at 223.5245 88.699502 270) (layer Dwgs.User)
      (effects (font (size 1.5 1.5) (thickness 0.3)))
    )
    (feature1 (pts (xy 197.557 101.209002) (xy 222.010921 101.209002)))
    (feature2 (pts (xy 197.557 76.190002) (xy 222.010921 76.190002)))
    (crossbar (pts (xy 221.4245 76.190002) (xy 221.4245 101.209002)))
    (arrow1a (pts (xy 221.4245 101.209002) (xy 220.838079 100.082498)))
    (arrow1b (pts (xy 221.4245 101.209002) (xy 222.010921 100.082498)))
    (arrow2a (pts (xy 221.4245 76.190002) (xy 220.838079 77.316506)))
    (arrow2b (pts (xy 221.4245 76.190002) (xy 222.010921 77.316506)))
  )

  (via (at 197.231 101.1555) (size 3.5) (drill 3) (layers F.Cu B.Cu) (net 0))
  (via (at 197.1675 81.153) (size 3.5) (drill 3) (layers F.Cu B.Cu) (net 0))
  (via (at 92.253 101.181) (size 3.5) (drill 3) (layers F.Cu B.Cu) (net 0) (tstamp 65E2B753))
  (segment (start 147 103.8) (end 147 100.75) (width 1.25) (layer F.Cu) (net 1))
  (segment (start 147 100.75) (end 155 100.75) (width 1.25) (layer F.Cu) (net 1))
  (segment (start 155 100.75) (end 155 100.75) (width 1.25) (layer F.Cu) (net 1) (tstamp 65E9BBA5))
  (via (at 155 100.75) (size 2) (drill 0.8) (layers F.Cu B.Cu) (net 1))
  (segment (start 155 100.75) (end 155 108.1) (width 1.25) (layer B.Cu) (net 1))
  (segment (start 155 100.75) (end 156.414213 100.75) (width 1.25) (layer B.Cu) (net 1))
  (segment (start 157.25 86.25) (end 157.25 86.25) (width 1.25) (layer F.Cu) (net 1) (tstamp 65D1D420))
  (via (at 157.25 86.25) (size 2) (drill 0.8) (layers F.Cu B.Cu) (net 1))
  (segment (start 157.25 86.25) (end 142.5 86.25) (width 1.25) (layer F.Cu) (net 1))
  (segment (start 142 85.75) (end 142 84.2) (width 1.25) (layer F.Cu) (net 1))
  (segment (start 142.5 86.25) (end 142 85.75) (width 1.25) (layer F.Cu) (net 1))
  (segment (start 157.71 91.46) (end 159.975 91.46) (width 1.25) (layer F.Cu) (net 1))
  (segment (start 157.25 86.25) (end 157.25 91) (width 1.25) (layer F.Cu) (net 1))
  (segment (start 157.25 91) (end 157.71 91.46) (width 1.25) (layer F.Cu) (net 1))
  (segment (start 157.25 86.25) (end 157.25 100.25) (width 1.25) (layer B.Cu) (net 1))
  (segment (start 156.75 100.75) (end 156.414213 100.75) (width 1.25) (layer B.Cu) (net 1))
  (segment (start 157.25 100.25) (end 156.75 100.75) (width 1.25) (layer B.Cu) (net 1))
  (segment (start 145.75 100.75) (end 147 100.75) (width 1.25) (layer F.Cu) (net 1))
  (segment (start 132.75 100.75) (end 145.75 100.75) (width 1.25) (layer F.Cu) (net 1))
  (segment (start 132.25 100.25) (end 132.75 100.75) (width 1.25) (layer F.Cu) (net 1))
  (segment (start 132.25 97) (end 132.25 100.25) (width 1.25) (layer F.Cu) (net 1))
  (segment (start 129.525 96.54) (end 131.79 96.54) (width 1.25) (layer F.Cu) (net 1))
  (segment (start 131.79 96.54) (end 132.25 97) (width 1.25) (layer F.Cu) (net 1))
  (segment (start 129.25 108.1) (end 134.25 108.1) (width 1.25) (layer B.Cu) (net 2))
  (segment (start 134.25 108.1) (end 139.25 108.1) (width 1.25) (layer B.Cu) (net 2))
  (via (at 147 112.5) (size 2) (drill 0.8) (layers F.Cu B.Cu) (net 2))
  (segment (start 147 109.2) (end 147 112.5) (width 1.25) (layer F.Cu) (net 2))
  (segment (start 134.25 79.9) (end 134.25 76) (width 1.25) (layer B.Cu) (net 2))
  (segment (start 134.25 76) (end 134.75 75.5) (width 1.25) (layer B.Cu) (net 2))
  (segment (start 134.75 75.5) (end 142 75.5) (width 1.25) (layer B.Cu) (net 2))
  (segment (start 142 75.5) (end 142 75.5) (width 1.25) (layer B.Cu) (net 2) (tstamp 65E9B308))
  (via (at 142 75.5) (size 2) (drill 0.8) (layers F.Cu B.Cu) (net 2))
  (segment (start 142 78.8) (end 142 75.5) (width 1.25) (layer F.Cu) (net 2))
  (segment (start 144.25 96.5) (end 141.45 96.5) (width 1.25) (layer F.Cu) (net 2))
  (segment (start 147.05 96.5) (end 144.25 96.5) (width 1.25) (layer F.Cu) (net 2))
  (segment (start 144.25 91.4) (end 144.25 91.4) (width 1.25) (layer F.Cu) (net 2))
  (segment (start 144.25 91.4) (end 147.871 91.4) (width 1.25) (layer F.Cu) (net 2))
  (segment (start 140.5 91.4) (end 144.25 91.4) (width 1.25) (layer F.Cu) (net 2))
  (segment (start 179 112.5) (end 179 112.5) (width 1.25) (layer B.Cu) (net 2) (tstamp 65E9B550))
  (via (at 179 112.5) (size 2) (drill 0.8) (layers F.Cu B.Cu) (net 2))
  (segment (start 179 94.125) (end 179.125 94) (width 1.25) (layer F.Cu) (net 2))
  (segment (start 179 112.5) (end 179 94.125) (width 1.25) (layer F.Cu) (net 2))
  (segment (start 110.25 112.5) (end 110.25 112.5) (width 1.25) (layer B.Cu) (net 2) (tstamp 65E9B58A))
  (via (at 110.25 112.5) (size 2) (drill 0.8) (layers F.Cu B.Cu) (net 2))
  (segment (start 110.25 94.125) (end 110.375 94) (width 1.25) (layer F.Cu) (net 2))
  (segment (start 110.25 112.5) (end 110.25 94.125) (width 1.25) (layer F.Cu) (net 2))
  (segment (start 147 112.5) (end 139.25 112.5) (width 1.25) (layer B.Cu) (net 2))
  (segment (start 160 112.5) (end 160 108.1) (width 1.25) (layer B.Cu) (net 2))
  (segment (start 160 112.5) (end 179 112.5) (width 1.25) (layer B.Cu) (net 2))
  (segment (start 147 112.5) (end 160 112.5) (width 1.25) (layer B.Cu) (net 2))
  (segment (start 134.25 91.5) (end 134.25 79.9) (width 1.25) (layer B.Cu) (net 2))
  (segment (start 134.25 108.1) (end 134.25 91.5) (width 1.25) (layer B.Cu) (net 2))
  (segment (start 144.25 91.4) (end 144.25 96.5) (width 1.25) (layer F.Cu) (net 2) (tstamp 65D1CFB8))
  (via (at 144.25 91.4) (size 2) (drill 0.8) (layers F.Cu B.Cu) (net 2))
  (segment (start 134.35 91.4) (end 144.25 91.4) (width 1.25) (layer B.Cu) (net 2))
  (segment (start 134.25 91.5) (end 134.35 91.4) (width 1.25) (layer B.Cu) (net 2))
  (segment (start 134.25 108.1) (end 134.25 112.5) (width 1.25) (layer B.Cu) (net 2))
  (segment (start 139.25 112.5) (end 134.25 112.5) (width 1.25) (layer B.Cu) (net 2))
  (segment (start 134.25 112.5) (end 110.25 112.5) (width 1.25) (layer B.Cu) (net 2))
  (segment (start 129.25 79.9) (end 129.25 86.25) (width 1.25) (layer B.Cu) (net 3))
  (segment (start 129.25 86.25) (end 129.25 86.25) (width 1.25) (layer B.Cu) (net 3) (tstamp 65E9B207))
  (via (at 129.25 86.25) (size 2) (drill 0.8) (layers F.Cu B.Cu) (net 3))
  (segment (start 129.25 91.185) (end 129.525 91.46) (width 1.25) (layer F.Cu) (net 3))
  (segment (start 129.25 86.25) (end 129.25 91.185) (width 1.25) (layer F.Cu) (net 3))
  (segment (start 137.2325 91.46) (end 137.2925 91.4) (width 1.25) (layer F.Cu) (net 3))
  (segment (start 134 91.46) (end 137.2325 91.46) (width 1.25) (layer F.Cu) (net 3))
  (segment (start 129.525 91.46) (end 133.5 91.46) (width 1.25) (layer F.Cu) (net 3))
  (segment (start 133.5 91.46) (end 134 91.46) (width 1.25) (layer F.Cu) (net 3))
  (segment (start 133.5 96) (end 133.5 91.46) (width 1.25) (layer F.Cu) (net 3))
  (segment (start 133.5 96) (end 134 96.5) (width 1.25) (layer F.Cu) (net 3))
  (segment (start 134 96.5) (end 136.05 96.5) (width 1.25) (layer F.Cu) (net 3))
  (segment (start 152.49 96.54) (end 152.45 96.5) (width 1.25) (layer F.Cu) (net 4))
  (segment (start 152.25 96.5) (end 152.45 96.5) (width 1.25) (layer F.Cu) (net 4))
  (segment (start 150 79.9) (end 155 79.9) (width 1.25) (layer B.Cu) (net 4))
  (segment (start 160 79.9) (end 155 79.9) (width 1.25) (layer B.Cu) (net 4))
  (segment (start 159.935 96.5) (end 159.975 96.54) (width 1.25) (layer F.Cu) (net 4))
  (segment (start 152.45 96.5) (end 155 96.5) (width 1.25) (layer F.Cu) (net 4))
  (segment (start 155 96.5) (end 159.935 96.5) (width 1.25) (layer F.Cu) (net 4))
  (segment (start 155 96.5) (end 155 91.5) (width 1.25) (layer F.Cu) (net 4))
  (segment (start 155 91.5) (end 155 91.5) (width 1.25) (layer F.Cu) (net 4) (tstamp 65D1D2D0))
  (via (at 155 91.5) (size 2) (drill 0.8) (layers F.Cu B.Cu) (net 4))
  (segment (start 154.9 91.4) (end 155 91.5) (width 1.25) (layer F.Cu) (net 4))
  (segment (start 151.2365 91.4) (end 154.9 91.4) (width 1.25) (layer F.Cu) (net 4))
  (segment (start 155 91.5) (end 155 79.9) (width 1.25) (layer B.Cu) (net 4))
  (segment (start 140.5 88.6) (end 137.2925 88.6) (width 1.25) (layer F.Cu) (net 5))
  (segment (start 147.871 88.6) (end 151.2365 88.6) (width 1.25) (layer F.Cu) (net 6))

)
